9 R Refresher Part 9: Useful tidyr and dplyr functions – **Assignment 1 Guide**
…
# Data is now in long format - the variable name is contained in the variable column, and the data value is contained in the value column

# pivot back to wide format
pivot_wider(mtcars_long, names_from = variable, values_from = value)

# A tibble: 32 × 12
   car           mpg   cyl  disp    hp  drat    wt  qsec    vs    am  gear  carb
   <chr>       <dbl> <dbl> <dbl> <dbl> <dbl> <dbl> <dbl> <dbl> <dbl> <dbl> <dbl>
 1 Mazda RX4    21       6  160    110  3.9   2.62  16.5     0     1     4     4
 2 Mazda RX4 …  21       6  160    110  3.9   2.88  17.0     0     1     4     4
 3 Datsun 710   22.8     4  108     93  3.85  2.32  18.6     1     1     4     1
 4 Hornet 4 D…  21.4     6  258    110  3.08  3.22  19.4     1     0     3     1
 5 Hornet Spo…  18.7     8  360    175  3.15  3.44  17.0     0     0     3     2
 6 Valiant      18.1     6  225    105  2.76  3.46  20.2     1     0     3     1
 7 Duster 360   14.3     8  360    245  3.21  3.57  15.8     0     0     3     4
 8 Merc 240D    24.4     4  147.    62  3.69  3.19  20       1     0     4     2
 9 Merc 230     22.8     4  141.    95  3.92  3.15  22.9     1     0     4     2
10 Merc 280     19.2     6  168.   123  3.92  3.44  18.3     1     0     4     4
# ℹ 22 more rows

# ggplot typically requires long format data, whereas something like apply may require wide format data

9.4 Pipes

The %>% operator is a special operator which can be used to chain multiple functions together. These chains are known as pipes. Pipes are very useful when combined with various tidyverse functions in order to quickly and easily summarize data and run calculations on data frames. This is a very powerful data analysis tool, which has essentially replaced apply() for many people. Take a look at some of the examples below.

# dplyr pipes
# The %>% operator in dplyr/tidyr passes data to the next function

# filter filters logicals, similar to indexing
mtcars_long %>% filter(variable == 'cyl')

# A tibble: 32 × 3
   car               variable value
   <chr>             <chr>    <dbl>
 1 Mazda RX4         cyl          6
 2 Mazda RX4 Wag     cyl          6
 3 Datsun 710        cyl          4
 4 Hornet 4 Drive    cyl          6
 5 Hornet Sportabout cyl          8
 6 Valiant           cyl          6
 7 Duster 360        cyl          8
 8 Merc 240D         cyl          4
 9 Merc 230          cyl          4
10 Merc 280          cyl          6
# ℹ 22 more rows

# This is the same as:
filter(mtcars_long, variable == 'cyl')

# A tibble: 32 × 3
   car               variable value
   <chr>             <chr>    <dbl>
 1 Mazda RX4         cyl          6
 2 Mazda RX4 Wag     cyl          6
 3 Datsun 710        cyl          4
 4 Hornet 4 Drive    cyl          6
 5 Hornet Sportabout cyl          8
 6 Valiant           cyl          6
 7 Duster 360        cyl          8
 8 Merc 240D         cyl          4
 9 Merc 230          cyl          4
10 Merc 280          cyl          6
# ℹ 22 more rows
…
